…
Gegeben sind folgende Daten (als Vektoren):

```{r, eval = FALSE}
kein_alkohol <- c(64, 58, 64)
placebo <- c(74, 79, 72)
anti_placebo <- c(71, 69, 67)
alkohol <- c(69, 73, 74)
```

Das Ziel ist ein solches Data Frame:

```{r, eval = FALSE}
alkoholkonsum
#> # A tibble: 12 × 2
#>   alkoholbedingung aggressivitaet
#>   <fct>                     <dbl>
#> 1 kein_alkohol                 64
#> 2 placebo                      74
#> 3 anti_placebo                 71
#> 4 alkohol                      69
#> 5 kein_alkohol                 58
#> 6 placebo                      79
#> # … with 6 more rows
```
…
alkohol <- c(69, 73, 74)
alkohol <- tibble(aggressivitaet = alkohol,
                      alkoholbedingung = "alkohol")
```

Anschließend können alle vier Data Frames zusammengefügt werden:

```{r}
alk_aggr <- bind_rows(kein_alkohol,
                      placebo,
                      anti_placebo,
                      alkohol)
#> # A tibble: 12 × 2
#>   aggressivitaet alkoholbedingung
#>            <dbl> <chr>           
#> 1             64 kein_alkohol    
#> 2             58 kein_alkohol    
#> 3             64 kein_alkohol    
#> 4             74 placebo         
#> 5             79 placebo         
#> 6             72 placebo         
#> # … with 6 more rows
```

Nun wird die Variable `alkoholbedingung` zu einem `factor` konvertiert:

```{r}
alk_aggr$alkoholbedingung <- factor(alk_aggr$alkoholbedingung)

#> # A tibble: 12 × 2
#>   aggressivitaet alkoholbedingung
#>            <dbl> <fct>           
#> 1             64 kein_alkohol    
#> 2             58 kein_alkohol    
#> 3             64 kein_alkohol    
#> 4             74 placebo         
#> 5             79 placebo         
#> 6             72 placebo         
#> # … with 6 more rows
```
…
